{"code":0,"msg":"success","data":{"totalList":[{"id":9202015,"processDefinitionId":1983,"state":"RUNNING_EXEUTION","recovery":"NO","startTime":"2026-05-14T09:20:01.000+0000","endTime":null,"runTimes":1,"name":"dwd_ucar_auction_detail_df-0-1778750400837","host":"10.25.15.104:5678","processDefinition":null,"commandType":"SCHEDULER","commandParam":null,"taskDependType":null,"maxTryTimes":0,"failureStrategy":null,"warningType":null,"warningGroupId":null,"scheduleTime":"2026-05-14T09:20:00.000+0000","commandStartTime":null,"globalParams":null,"processInstanceJson":null,"executorId":49,"executorName":"zhangweizzzz","tenantCode":null,"queue":null,"isSubProcess":null,"locations":null,"connects":null,"historyCmd":null,"dependenceScheduleTimes":null,"duration":0,"processInstancePriority":null,"workerGroup":null,"timeout":0,"tenantId":0,"receivers":null,"receiversCc":null,"cmdTypeIfComplement":"SCHEDULER","complementData":false,"processInstanceStop":false},{"id":9202009,"processDefinitionId":1859,"state":"SUCCESS","recovery":"NO","startTime":"2026-05-14T09:20:01.000+0000","endTime":"2026-05-14T09:27:56.000+0000","runTimes":1,"name":"dwd_ucar_score_auction_car_df-0-1778750400716","host":"10.25.15.105:5678","processDefinition":null,"commandType":"SCHEDULER","commandParam":null,"taskDependType":null,"maxTryTimes":0,"failureStrategy":null,"warningType":null,"warningGroupId":null,"scheduleTime":"2026-05-14T09:20:00.000+0000","commandStartTime":null,"globalParams":null,"processInstanceJson":null,"executorId":49,"executorName":"zhangweizzzz","tenantCode":null,"queue":null,"isSubProcess":null,"locations":null,"connects":null,"historyCmd":null,"dependenceScheduleTimes":null,"duration":475,"processInstancePriority":null,"workerGroup":null,"timeout":0,"tenantId":0,"receivers":null,"receiversCc":null,"cmdTypeIfComplement":"SCHEDULER","complementData":false,"processInstanceStop":true},{"id":9202013,"processDefinitionId":1873,"state":"SUCCESS","recovery":"NO","startTime":"2026-05-14T09:20:01.000+0000","endTime":"2026-05-14T09:22:45.000+0000","runTimes":1,"name":"dwd_ucar_auction_veh_src_detection_df-0-1778750400802","host":"10.25.15.105:5678","processDefinition":null,"commandType":"SCHEDULER","commandParam":null,"taskDependType":null,"maxTryTimes":0,"failureStrategy":null,"warningType":null,"warningGroupId":null,"scheduleTime":"2026-05-14T09:20:00.000+0000","commandStartTime":null,"globalParams":null,"processInstanceJson":null,"executorId":49,"executorName":"zhangweizzzz","tenantCode":null,"queue":null,"isSubProcess":null,"locations":null,"connects":null,"historyCmd":null,"dependenceScheduleTimes":null,"duration":164,"processInstancePriority":null,"workerGroup":null,"timeout":0,"tenantId":0,"receivers":null,"receiversCc":null,"cmdTypeIfComplement":"SCHEDULER","complementData":false,"processInstanceStop":true},{"id":9202003,"processDefinitionId":1847,"state":"SUCCESS","recovery":"NO","startTime":"2026-05-14T09:20:01.000+0000","endTime":"2026-05-14T09:28:38.000+0000","runTimes":1,"name":"dwd_ucar_limit_auction_car_df-0-1778750400646","host":"10.25.15.104:5678","processDefinition":null,"commandType":"SCHEDULER","commandParam":null,"taskDependType":null,"maxTryTimes":0,"failureStrategy":null,"warningType":null,"warningGroupId":null,"scheduleTime":"2026-05-14T09:20:00.000+0000","commandStartTime":null,"globalParams":null,"processInstanceJson":null,"executorId":49,"executorName":"zhangweizzzz","tenantCode":null,"queue":null,"isSubProcess":null,"locations":null,"connects":null,"historyCmd":null,"dependenceScheduleTimes":null,"duration":517,"processInstancePriority":null,"workerGroup":null,"timeout":0,"tenantId":0,"receivers":null,"receiversCc":null,"cmdTypeIfComplement":"SCHEDULER","complementData":false,"processInstanceStop":true},{"id":9202005,"processDefinitionId":1855,"state":"SUCCESS","recovery":"NO","startTime":"2026-05-14T09:20:01.000+0000","endTime":"2026-05-14T09:28:25.000+0000","runTimes":1,"name":"dwd_ucar_vip_auction_car_df-0-1778750400675","host":"10.25.15.105:5678","processDefinition":null,"commandType":"SCHEDULER","commandParam":null,"taskDependType":null,"maxTryTimes":0,"failureStrategy":null,"warningType":null,"warningGroupId":null,"scheduleTime":"2026-05-14T09:20:00.000+0000","commandStartTime":null,"globalParams":null,"processInstanceJson":null,"executorId":49,"executorName":"zhangweizzzz","tenantCode":null,"queue":null,"isSubProcess":null,"locations":null,"connects":null,"historyCmd":null,"dependenceScheduleTimes":null,"duration":504,"processInstancePriority":null,"workerGroup":null,"timeout":0,"tenantId":0,"receivers":null,"receiversCc":null,"cmdTypeIfComplement":"SCHEDULER","complementData":false,"processInstanceStop":true},{"id":9202011,"processDefinitionId":1871,"state":"SUCCESS","recovery":"NO","startTime":"2026-05-14T09:20:01.000+0000","endTime":"2026-05-14T09:23:36.000+0000","runTimes":1,"name":"dwd_ucar_auction_work_order_df-0-1778750400758","host":"10.25.15.104:5678","processDefinition":null,"commandType":"SCHEDULER","commandParam":null,"taskDependType":null,"maxTryTimes":0,"failureStrategy":null,"warningType":null,"warningGroupId":null,"scheduleTime":"2026-05-14T09:20:00.000+0000","commandStartTime":null,"globalParams":null,"processInstanceJson":null,"executorId":49,"executorName":"zhangweizzzz","tenantCode":null,"queue":null,"isSubProcess":null,"locations":null,"connects":null,"historyCmd":null,"dependenceScheduleTimes":null,"duration":215,"processInstancePriority":null,"workerGroup":null,"timeout":0,"tenantId":0,"receivers":null,"receiversCc":null,"cmdTypeIfComplement":"SCHEDULER","complementData":false,"processInstanceStop":true},{"id":9202017,"processDefinitionId":2941,"state":"SUCCESS","recovery":"NO","startTime":"2026-05-14T09:20:01.000+0000","endTime":"2026-05-14T09:20:50.000+0000","runTimes":1,"name":"dwd_ucar_auction_veh_database_df-0-1778750400871","host":"10.25.15.105:5678","processDefinition":null,"commandType":"SCHEDULER","commandParam":null,"taskDependType":null,"maxTryTimes":0,"failureStrategy":null,"warningType":null,"warningGroupId":null,"scheduleTime":"2026-05-14T09:20:00.000+0000","commandStartTime":null,"globalParams":null,"processInstanceJson":null,"executorId":49,"executorName":"zhangweizzzz","tenantCode":null,"queue":null,"isSubProcess":null,"locations":null,"connects":null,"historyCmd":null,"dependenceScheduleTimes":null,"duration":49,"processInstancePriority":null,"workerGroup":null,"timeout":0,"tenantId":0,"receivers":null,"receiversCc":null,"cmdTypeIfComplement":"SCHEDULER","complementData":false,"processInstanceStop":true},{"id":9202007,"processDefinitionId":1849,"state":"SUCCESS","recovery":"NO","startTime":"2026-05-14T09:20:01.000+0000","endTime":"2026-05-14T09:27:58.000+0000","runTimes":1,"name":"dwd_ucar_long_auction_car_df-0-1778750400699","host":"10.25.15.104:5678","processDefinition":null,"commandType":"SCHEDULER","commandParam":null,"taskDependType":null,"maxTryTimes":0,"failureStrategy":null,"warningType":null,"warningGroupId":null,"scheduleTime":"2026-05-14T09:20:00.000+0000","commandStartTime":null,"globalParams":null,"processInstanceJson":null,"executorId":49,"executorName":"zhangweizzzz","tenantCode":null,"queue":null,"isSubProcess":null,"locations":null,"connects":null,"historyCmd":null,"dependenceScheduleTimes":null,"duration":477,"processInstancePriority":null,"workerGroup":null,"timeout":0,"tenantId":0,"receivers":null,"receiversCc":null,"cmdTypeIfComplement":"SCHEDULER","complementData":false,"processInstanceStop":true},{"id":9201983,"processDefinitionId":6643,"state":"SUCCESS","recovery":"NO","startTime":"2026-05-14T09:10:01.000+0000","endTime":"2026-05-14T09:11:07.000+0000","runTimes":1,"name":"dwd_metadata_dolphin_t_ds_process_definition_df-0-1778749800743","host":"10.25.15.104:5678","processDefinition":null,"commandType":"SCHEDULER","commandParam":null,"taskDependType":null,"maxTryTimes":0,"failureStrategy":null,"warningType":null,"warningGroupId":null,"scheduleTime":"2026-05-14T09:10:00.000+0000","commandStartTime":null,"globalParams":null,"processInstanceJson":null,"executorId":19,"executorName":"lvkaixuan","tenantCode":null,"queue":null,"isSubProcess":null,"locations":null,"connects":null,"historyCmd":null,"dependenceScheduleTimes":null,"duration":66,"processInstancePriority":null,"workerGroup":null,"timeout":0,"tenantId":0,"receivers":null,"receiversCc":null,"cmdTypeIfComplement":"SCHEDULER","complementData":false,"processInstanceStop":true},{"id":9201981,"processDefinitionId":6649,"state":"SUCCESS","recovery":"NO","startTime":"2026-05-14T09:10:01.000+0000","endTime":"2026-05-14T09:11:08.000+0000","runTimes":1,"name":"dwd_metadata_dolphin_t_ds_project_df-0-1778749800680","host":"10.25.15.105:5678","processDefinition":null,"commandType":"SCHEDULER","commandParam":null,"taskDependType":null,"maxTryTimes":0,"failureStrategy":null,"warningType":null,"warningGroupId":null,"scheduleTime":"2026-05-14T09:10:00.000+0000","commandStartTime":null,"globalParams":null,"processInstanceJson":null,"executorId":19,"executorName":"lvkaixuan","tenantCode":null,"queue":null,"isSubProcess":null,"locations":null,"connects":null,"historyCmd":null,"dependenceScheduleTimes":null,"duration":67,"processInstancePriority":null,"workerGroup":null,"timeout":0,"tenantId":0,"receivers":null,"receiversCc":null,"cmdTypeIfComplement":"SCHEDULER","complementData":false,"processInstanceStop":true}],"total":66978,"currentPage":1,"totalPage":6698}}