{"code":0,"msg":"success","data":{"totalList":[{"id":9202001,"processDefinitionId":1563,"state":"SUCCESS","recovery":"NO","startTime":"2026-05-14T09:20:01.000+0000","endTime":"2026-05-14T09:26:28.000+0000","runTimes":1,"name":"dim_ucar_car_source_df-0-1778750400602","host":"10.25.15.105:5678","processDefinition":null,"commandType":"SCHEDULER","commandParam":null,"taskDependType":null,"maxTryTimes":0,"failureStrategy":null,"warningType":null,"warningGroupId":null,"scheduleTime":"2026-05-14T09:20:00.000+0000","commandStartTime":null,"globalParams":null,"processInstanceJson":null,"executorId":23,"executorName":"guweiying","tenantCode":null,"queue":null,"isSubProcess":null,"locations":null,"connects":null,"historyCmd":null,"dependenceScheduleTimes":null,"duration":387,"processInstancePriority":null,"workerGroup":null,"timeout":0,"tenantId":0,"receivers":null,"receiversCc":null,"cmdTypeIfComplement":"SCHEDULER","complementData":false,"processInstanceStop":true},{"id":9201975,"processDefinitionId":2607,"state":"SUCCESS","recovery":"NO","startTime":"2026-05-14T09:10:01.000+0000","endTime":"2026-05-14T09:20:05.000+0000","runTimes":1,"name":"dim_ucar_vechile_style_df-0-1778749800568","host":"10.25.15.104:5678","processDefinition":null,"commandType":"SCHEDULER","commandParam":null,"taskDependType":null,"maxTryTimes":0,"failureStrategy":null,"warningType":null,"warningGroupId":null,"scheduleTime":"2026-05-14T09:10:00.000+0000","commandStartTime":null,"globalParams":null,"processInstanceJson":null,"executorId":49,"executorName":"zhangweizzzz","tenantCode":null,"queue":null,"isSubProcess":null,"locations":null,"connects":null,"historyCmd":null,"dependenceScheduleTimes":null,"duration":604,"processInstancePriority":null,"workerGroup":null,"timeout":0,"tenantId":0,"receivers":null,"receiversCc":null,"cmdTypeIfComplement":"SCHEDULER","complementData":false,"processInstanceStop":true},{"id":9201779,"processDefinitionId":11113,"state":"SUCCESS","recovery":"NO","startTime":"2026-05-14T08:40:00.000+0000","endTime":"2026-05-14T08:46:32.000+0000","runTimes":1,"name":"dim_fl_prj_prd_dtl_sch_mapping_min_df-0-1778748000332","host":"10.25.15.104:5678","processDefinition":null,"commandType":"SCHEDULER","commandParam":null,"taskDependType":null,"maxTryTimes":0,"failureStrategy":null,"warningType":null,"warningGroupId":null,"scheduleTime":"2026-05-14T08:40:00.000+0000","commandStartTime":null,"globalParams":null,"processInstanceJson":null,"executorId":19,"executorName":"lvkaixuan","tenantCode":null,"queue":null,"isSubProcess":null,"locations":null,"connects":null,"historyCmd":null,"dependenceScheduleTimes":null,"duration":392,"processInstancePriority":null,"workerGroup":null,"timeout":0,"tenantId":0,"receivers":null,"receiversCc":null,"cmdTypeIfComplement":"SCHEDULER","complementData":false,"processInstanceStop":true},{"id":9201645,"processDefinitionId":11113,"state":"SUCCESS","recovery":"NO","startTime":"2026-05-14T07:40:01.000+0000","endTime":"2026-05-14T07:54:06.000+0000","runTimes":1,"name":"dim_fl_prj_prd_dtl_sch_mapping_min_df-0-1778744400856","host":"10.25.15.105:5678","processDefinition":null,"commandType":"SCHEDULER","commandParam":null,"taskDependType":null,"maxTryTimes":0,"failureStrategy":null,"warningType":null,"warningGroupId":null,"scheduleTime":"2026-05-14T07:40:00.000+0000","commandStartTime":null,"globalParams":null,"processInstanceJson":null,"executorId":19,"executorName":"lvkaixuan","tenantCode":null,"queue":null,"isSubProcess":null,"locations":null,"connects":null,"historyCmd":null,"dependenceScheduleTimes":null,"duration":845,"processInstancePriority":null,"workerGroup":null,"timeout":0,"tenantId":0,"receivers":null,"receiversCc":null,"cmdTypeIfComplement":"SCHEDULER","complementData":false,"processInstanceStop":true},{"id":9201541,"processDefinitionId":11113,"state":"SUCCESS","recovery":"NO","startTime":"2026-05-14T06:40:01.000+0000","endTime":"2026-05-14T06:49:50.000+0000","runTimes":1,"name":"dim_fl_prj_prd_dtl_sch_mapping_min_df-0-1778740800631","host":"10.25.15.105:5678","processDefinition":null,"commandType":"SCHEDULER","commandParam":null,"taskDependType":null,"maxTryTimes":0,"failureStrategy":null,"warningType":null,"warningGroupId":null,"scheduleTime":"2026-05-14T06:40:00.000+0000","commandStartTime":null,"globalParams":null,"processInstanceJson":null,"executorId":19,"executorName":"lvkaixuan","tenantCode":null,"queue":null,"isSubProcess":null,"locations":null,"connects":null,"historyCmd":null,"dependenceScheduleTimes":null,"duration":589,"processInstancePriority":null,"workerGroup":null,"timeout":0,"tenantId":0,"receivers":null,"receiversCc":null,"cmdTypeIfComplement":"SCHEDULER","complementData":false,"processInstanceStop":true},{"id":9201403,"processDefinitionId":11113,"state":"SUCCESS","recovery":"NO","startTime":"2026-05-14T05:40:01.000+0000","endTime":"2026-05-14T05:48:35.000+0000","runTimes":1,"name":"dim_fl_prj_prd_dtl_sch_mapping_min_df-0-1778737201173","host":"10.25.15.105:5678","processDefinition":null,"commandType":"SCHEDULER","commandParam":null,"taskDependType":null,"maxTryTimes":0,"failureStrategy":null,"warningType":null,"warningGroupId":null,"scheduleTime":"2026-05-14T05:40:00.000+0000","commandStartTime":null,"globalParams":null,"processInstanceJson":null,"executorId":19,"executorName":"lvkaixuan","tenantCode":null,"queue":null,"isSubProcess":null,"locations":null,"connects":null,"historyCmd":null,"dependenceScheduleTimes":null,"duration":514,"processInstancePriority":null,"workerGroup":null,"timeout":0,"tenantId":0,"receivers":null,"receiversCc":null,"cmdTypeIfComplement":"SCHEDULER","complementData":false,"processInstanceStop":true},{"id":9201389,"processDefinitionId":9251,"state":"SUCCESS","recovery":"NO","startTime":"2026-05-14T05:31:00.000+0000","endTime":"2026-05-14T06:21:50.000+0000","runTimes":1,"name":"dim_gps_device_info_df-0-1778736660142","host":"10.25.15.105:5678","processDefinition":null,"commandType":"SCHEDULER","commandParam":null,"taskDependType":null,"maxTryTimes":0,"failureStrategy":null,"warningType":null,"warningGroupId":null,"scheduleTime":"2026-05-14T05:31:00.000+0000","commandStartTime":null,"globalParams":null,"processInstanceJson":null,"executorId":131,"executorName":"zhaochenxu","tenantCode":null,"queue":null,"isSubProcess":null,"locations":null,"connects":null,"historyCmd":null,"dependenceScheduleTimes":null,"duration":3050,"processInstancePriority":null,"workerGroup":null,"timeout":0,"tenantId":0,"receivers":null,"receiversCc":null,"cmdTypeIfComplement":"SCHEDULER","complementData":false,"processInstanceStop":true},{"id":9201277,"processDefinitionId":11113,"state":"SUCCESS","recovery":"NO","startTime":"2026-05-14T04:40:01.000+0000","endTime":"2026-05-14T04:53:26.000+0000","runTimes":1,"name":"dim_fl_prj_prd_dtl_sch_mapping_min_df-0-1778733600950","host":"10.25.15.105:5678","processDefinition":null,"commandType":"SCHEDULER","commandParam":null,"taskDependType":null,"maxTryTimes":0,"failureStrategy":null,"warningType":null,"warningGroupId":null,"scheduleTime":"2026-05-14T04:40:00.000+0000","commandStartTime":null,"globalParams":null,"processInstanceJson":null,"executorId":19,"executorName":"lvkaixuan","tenantCode":null,"queue":null,"isSubProcess":null,"locations":null,"connects":null,"historyCmd":null,"dependenceScheduleTimes":null,"duration":805,"processInstancePriority":null,"workerGroup":null,"timeout":0,"tenantId":0,"receivers":null,"receiversCc":null,"cmdTypeIfComplement":"SCHEDULER","complementData":false,"processInstanceStop":true},{"id":9201077,"processDefinitionId":11113,"state":"SUCCESS","recovery":"NO","startTime":"2026-05-14T03:40:01.000+0000","endTime":"2026-05-14T04:03:32.000+0000","runTimes":1,"name":"dim_fl_prj_prd_dtl_sch_mapping_min_df-0-1778730000771","host":"10.25.15.105:5678","processDefinition":null,"commandType":"SCHEDULER","commandParam":null,"taskDependType":null,"maxTryTimes":0,"failureStrategy":null,"warningType":null,"warningGroupId":null,"scheduleTime":"2026-05-14T03:40:00.000+0000","commandStartTime":null,"globalParams":null,"processInstanceJson":null,"executorId":19,"executorName":"lvkaixuan","tenantCode":null,"queue":null,"isSubProcess":null,"locations":null,"connects":null,"historyCmd":null,"dependenceScheduleTimes":null,"duration":1411,"processInstancePriority":null,"workerGroup":null,"timeout":0,"tenantId":0,"receivers":null,"receiversCc":null,"cmdTypeIfComplement":"SCHEDULER","complementData":false,"processInstanceStop":true},{"id":9201065,"processDefinitionId":9251,"state":"SUCCESS","recovery":"NO","startTime":"2026-05-14T03:31:01.000+0000","endTime":"2026-05-14T04:00:30.000+0000","runTimes":1,"name":"dim_gps_device_info_df-0-1778729460700","host":"10.25.15.105:5678","processDefinition":null,"commandType":"SCHEDULER","commandParam":null,"taskDependType":null,"maxTryTimes":0,"failureStrategy":null,"warningType":null,"warningGroupId":null,"scheduleTime":"2026-05-14T03:31:00.000+0000","commandStartTime":null,"globalParams":null,"processInstanceJson":null,"executorId":131,"executorName":"zhaochenxu","tenantCode":null,"queue":null,"isSubProcess":null,"locations":null,"connects":null,"historyCmd":null,"dependenceScheduleTimes":null,"duration":1769,"processInstancePriority":null,"workerGroup":null,"timeout":0,"tenantId":0,"receivers":null,"receiversCc":null,"cmdTypeIfComplement":"SCHEDULER","complementData":false,"processInstanceStop":true}],"total":12343,"currentPage":1,"totalPage":1235}}