{"code":0,"msg":"success","data":{"totalList":[{"id":9201387,"processDefinitionId":6325,"state":"SUCCESS","recovery":"NO","startTime":"2026-05-14T05:30:23.000+0000","endTime":"2026-05-14T06:10:03.000+0000","runTimes":1,"name":"dws_gps_device_distance_info_di-0-1778736622691","host":"10.25.15.105:5678","processDefinition":null,"commandType":"SCHEDULER","commandParam":null,"taskDependType":null,"maxTryTimes":0,"failureStrategy":null,"warningType":null,"warningGroupId":null,"scheduleTime":"2026-05-14T05:30:22.000+0000","commandStartTime":null,"globalParams":null,"processInstanceJson":null,"executorId":131,"executorName":"zhaochenxu","tenantCode":null,"queue":null,"isSubProcess":null,"locations":null,"connects":null,"historyCmd":null,"dependenceScheduleTimes":null,"duration":2380,"processInstancePriority":null,"workerGroup":null,"timeout":0,"tenantId":0,"receivers":null,"receiversCc":null,"cmdTypeIfComplement":"SCHEDULER","complementData":false,"processInstanceStop":true},{"id":9201063,"processDefinitionId":6325,"state":"SUCCESS","recovery":"NO","startTime":"2026-05-14T03:30:23.000+0000","endTime":"2026-05-14T03:53:25.000+0000","runTimes":1,"name":"dws_gps_device_distance_info_di-0-1778729422951","host":"10.25.15.105:5678","processDefinition":null,"commandType":"SCHEDULER","commandParam":null,"taskDependType":null,"maxTryTimes":0,"failureStrategy":null,"warningType":null,"warningGroupId":null,"scheduleTime":"2026-05-14T03:30:22.000+0000","commandStartTime":null,"globalParams":null,"processInstanceJson":null,"executorId":131,"executorName":"zhaochenxu","tenantCode":null,"queue":null,"isSubProcess":null,"locations":null,"connects":null,"historyCmd":null,"dependenceScheduleTimes":null,"duration":1382,"processInstancePriority":null,"workerGroup":null,"timeout":0,"tenantId":0,"receivers":null,"receiversCc":null,"cmdTypeIfComplement":"SCHEDULER","complementData":false,"processInstanceStop":true},{"id":9200783,"processDefinitionId":4903,"state":"SUCCESS","recovery":"NO","startTime":"2026-05-14T02:30:03.000+0000","endTime":"2026-05-14T02:50:22.000+0000","runTimes":1,"name":"dws_csh_loan_ovd_re_df-0-1778725802629","host":"10.25.15.104:5678","processDefinition":null,"commandType":"SCHEDULER","commandParam":null,"taskDependType":null,"maxTryTimes":0,"failureStrategy":null,"warningType":null,"warningGroupId":null,"scheduleTime":"2026-05-14T02:30:00.000+0000","commandStartTime":null,"globalParams":null,"processInstanceJson":null,"executorId":19,"executorName":"lvkaixuan","tenantCode":null,"queue":null,"isSubProcess":null,"locations":null,"connects":null,"historyCmd":null,"dependenceScheduleTimes":null,"duration":1219,"processInstancePriority":null,"workerGroup":null,"timeout":0,"tenantId":0,"receivers":null,"receiversCc":null,"cmdTypeIfComplement":"SCHEDULER","complementData":false,"processInstanceStop":true},{"id":9200465,"processDefinitionId":2725,"state":"SUCCESS","recovery":"NO","startTime":"2026-05-14T01:55:00.000+0000","endTime":"2026-05-14T02:07:28.000+0000","runTimes":1,"name":"dws_fl_odr_mortgage-0-1778723700442","host":"10.25.15.105:5678","processDefinition":null,"commandType":"SCHEDULER","commandParam":null,"taskDependType":null,"maxTryTimes":0,"failureStrategy":null,"warningType":null,"warningGroupId":null,"scheduleTime":"2026-05-14T01:55:00.000+0000","commandStartTime":null,"globalParams":null,"processInstanceJson":null,"executorId":14,"executorName":"wangyuhan","tenantCode":null,"queue":null,"isSubProcess":null,"locations":null,"connects":null,"historyCmd":null,"dependenceScheduleTimes":null,"duration":748,"processInstancePriority":null,"workerGroup":null,"timeout":0,"tenantId":0,"receivers":null,"receiversCc":null,"cmdTypeIfComplement":"SCHEDULER","complementData":false,"processInstanceStop":true},{"id":9200413,"processDefinitionId":5409,"state":"SUCCESS","recovery":"NO","startTime":"2026-05-14T01:40:01.000+0000","endTime":"2026-05-14T01:49:38.000+0000","runTimes":1,"name":"dws_fl_rsk_task_dtl_df-0-1778722801123","host":"10.25.15.104:5678","processDefinition":null,"commandType":"SCHEDULER","commandParam":null,"taskDependType":null,"maxTryTimes":0,"failureStrategy":null,"warningType":null,"warningGroupId":null,"scheduleTime":"2026-05-14T01:40:00.000+0000","commandStartTime":null,"globalParams":null,"processInstanceJson":null,"executorId":45,"executorName":"chenzhitian","tenantCode":null,"queue":null,"isSubProcess":null,"locations":null,"connects":null,"historyCmd":null,"dependenceScheduleTimes":null,"duration":577,"processInstancePriority":null,"workerGroup":null,"timeout":0,"tenantId":0,"receivers":null,"receiversCc":null,"cmdTypeIfComplement":"SCHEDULER","complementData":false,"processInstanceStop":true},{"id":9200399,"processDefinitionId":2163,"state":"SUCCESS","recovery":"NO","startTime":"2026-05-14T01:35:01.000+0000","endTime":"2026-05-14T02:11:16.000+0000","runTimes":1,"name":"dws_csh_loan_rsk_exp_info_df-0-1778722500848","host":"10.25.15.105:5678","processDefinition":null,"commandType":"SCHEDULER","commandParam":null,"taskDependType":null,"maxTryTimes":0,"failureStrategy":null,"warningType":null,"warningGroupId":null,"scheduleTime":"2026-05-14T01:35:00.000+0000","commandStartTime":null,"globalParams":null,"processInstanceJson":null,"executorId":11,"executorName":"hanwenqi","tenantCode":null,"queue":null,"isSubProcess":null,"locations":null,"connects":null,"historyCmd":null,"dependenceScheduleTimes":null,"duration":2175,"processInstancePriority":null,"workerGroup":null,"timeout":0,"tenantId":0,"receivers":null,"receiversCc":null,"cmdTypeIfComplement":"SCHEDULER","complementData":false,"processInstanceStop":true},{"id":9200349,"processDefinitionId":1969,"state":"SUCCESS","recovery":"NO","startTime":"2026-05-14T01:25:01.000+0000","endTime":"2026-05-14T01:31:35.000+0000","runTimes":1,"name":"dws_fl_ovrd_info_sch_df-0-1778721901036","host":"10.25.15.105:5678","processDefinition":null,"commandType":"SCHEDULER","commandParam":null,"taskDependType":null,"maxTryTimes":0,"failureStrategy":null,"warningType":null,"warningGroupId":null,"scheduleTime":"2026-05-14T01:25:00.000+0000","commandStartTime":null,"globalParams":null,"processInstanceJson":null,"executorId":13,"executorName":"liuchunhongz","tenantCode":null,"queue":null,"isSubProcess":null,"locations":null,"connects":null,"historyCmd":null,"dependenceScheduleTimes":null,"duration":394,"processInstancePriority":null,"workerGroup":null,"timeout":0,"tenantId":0,"receivers":null,"receiversCc":null,"cmdTypeIfComplement":"SCHEDULER","complementData":false,"processInstanceStop":true},{"id":9200305,"processDefinitionId":4475,"state":"SUCCESS","recovery":"NO","startTime":"2026-05-14T01:15:01.000+0000","endTime":"2026-05-14T01:25:15.000+0000","runTimes":1,"name":"dws_fl_rsk_exp_sch_info_df-0-1778721301070","host":"10.25.15.105:5678","processDefinition":null,"commandType":"SCHEDULER","commandParam":null,"taskDependType":null,"maxTryTimes":0,"failureStrategy":null,"warningType":null,"warningGroupId":null,"scheduleTime":"2026-05-14T01:15:00.000+0000","commandStartTime":null,"globalParams":null,"processInstanceJson":null,"executorId":19,"executorName":"lvkaixuan","tenantCode":null,"queue":null,"isSubProcess":null,"locations":null,"connects":null,"historyCmd":null,"dependenceScheduleTimes":null,"duration":614,"processInstancePriority":null,"workerGroup":null,"timeout":0,"tenantId":0,"receivers":null,"receiversCc":null,"cmdTypeIfComplement":"SCHEDULER","complementData":false,"processInstanceStop":true},{"id":9200071,"processDefinitionId":4103,"state":"SUCCESS","recovery":"NO","startTime":"2026-05-14T01:00:06.000+0000","endTime":"2026-05-14T01:22:12.000+0000","runTimes":1,"name":"dws_fl_ovrd_pay_sch_df-0-1778720405611","host":"10.25.15.104:5678","processDefinition":null,"commandType":"SCHEDULER","commandParam":null,"taskDependType":null,"maxTryTimes":0,"failureStrategy":null,"warningType":null,"warningGroupId":null,"scheduleTime":"2026-05-14T01:00:00.000+0000","commandStartTime":null,"globalParams":null,"processInstanceJson":null,"executorId":19,"executorName":"lvkaixuan","tenantCode":null,"queue":null,"isSubProcess":null,"locations":null,"connects":null,"historyCmd":null,"dependenceScheduleTimes":null,"duration":1326,"processInstancePriority":null,"workerGroup":null,"timeout":0,"tenantId":0,"receivers":null,"receiversCc":null,"cmdTypeIfComplement":"SCHEDULER","complementData":false,"processInstanceStop":true},{"id":9199735,"processDefinitionId":5217,"state":"SUCCESS","recovery":"NO","startTime":"2026-05-14T00:00:05.000+0000","endTime":"2026-05-14T00:18:26.000+0000","runTimes":1,"name":"dws_ucar_auction_order_df-0-1778716804740","host":"10.25.15.105:5678","processDefinition":null,"commandType":"SCHEDULER","commandParam":null,"taskDependType":null,"maxTryTimes":0,"failureStrategy":null,"warningType":null,"warningGroupId":null,"scheduleTime":"2026-05-14T00:00:00.000+0000","commandStartTime":null,"globalParams":null,"processInstanceJson":null,"executorId":49,"executorName":"zhangweizzzz","tenantCode":null,"queue":null,"isSubProcess":null,"locations":null,"connects":null,"historyCmd":null,"dependenceScheduleTimes":null,"duration":1101,"processInstancePriority":null,"workerGroup":null,"timeout":0,"tenantId":0,"receivers":null,"receiversCc":null,"cmdTypeIfComplement":"SCHEDULER","complementData":false,"processInstanceStop":true}],"total":4147,"currentPage":1,"totalPage":415}}